// Jest Snapshot v1, https://goo.gl/fbAQLP

exports[`frontend/default/components/table_of_contents matches snapshot 1`] = `
<div
  class="markdown-toc table-of-contents-container gl-lg-sticky"
>
  <div
    class="table-of-contents"
  >
    <h4
      class="gl-my-0! border-0 toc-sm d-xl-none"
    >
      <a
        aria-controls="markdown-toc"
        class="text-decoration-none border-bottom-0"
        data-testid="collapse"
        href="#"
        role="button"
      >
        <gl-icon-stub
          name="chevron-right"
          size="16"
        />
        On this page
      </a>
    </h4>
    <h4
      class="border-0 gl-font-base font-weight-bold toc-lg"
    >
      On this page
    </h4>
    <gl-collapse-stub
      data-testid="container"
    >
      <table-of-contents-list-stub
        class="my-0"
        data-testid="main-list"
        items="[object Object],[object Object],[object Object],[object Object],[object Object],[object Object],[object Object]"
        level="0"
      />
    </gl-collapse-stub>
  </div>
</div>
`;
